…
``` r
length(unique(datb$journalb))
```

    ## [1] 348

``` r
# There are 368 unique journals in the scholarA and 348 unique journals in the scholarB.

# Count the total number of citations for each journal.
tb1 <- tbl_df(data) %>% group_by(journala) %>% summarize(suma = sum(citationa,na.rm = TRUE))
tb1
```

    ## # A tibble: 368 x 2
    ##    journala                                                            suma
    ##    <fct>                                                              <int>
    ##  1 ""                                                                   131
    ##  2 <U+30AF><U+30FC><U+30EA><U+30A8>·<U+30B8><U+30E3><U+30DD><U+30F3>~     0
    ##  3 1st TCD/LSE/CEPR Workshop in Development Economics, Dublin, 2017      11
    ##  4 A Research on China’s Economic Growth Potential 46 (1), 1-3, 2017      0
    ##  5 A. Robinson. Reversal of fortune: Geography and institutions in t~    34
    ##  6 ABCDE, 145, 2005                                                       0
    ##  7 Accessed February 15, 2017, 2014                                      29
    ##  8 Achieving the Millennium Development Goals 33, 230, 2008               0
    ##  9 Advances in Economics and Econometrics: Theory and Applications, ~   284
    ## 10 AEA Papers and Proceedings 109, 133-37, 2019                           2
    ## # ... with 358 more rows

``` r
tb2 <- tbl_df(datb) %>% group_by(journalb) %>% summarize(sumb = sum(citationb,na.rm = TRUE))
tb2
```

    ## # A tibble: 348 x 2
    ##    journalb                                                            sumb
    ##    <fct>                                                              <int>
    ##  1 ""                                                                   168
    ##  2 [Rabat Morocco] John Snow [JSI] 2001 Jun 28., 2001                     0
    ##  3 [Unpublished] 2002. Prepared for the IAEN Economics of HIV/AIDS i~     0
    ##  4 [Unpublished] 2006 Aug., 2006                                          0
    ##  5 <U+30AF><U+30FC><U+30EA><U+30A8>·<U+30B8><U+30E3><U+30DD><U+30F3>~     0
    ##  6 21st BREAD Conference, 12-13, 2012                                     8
    ##  7 A Radical Rethinking of the Way to Fight Global Poverty. New York~     2
    ##  8 A Research on China’s Economic Growth Potential 46 (1), 1-3, 2017      0
    ##  9 Accessed February 15, 2017, 2014                                      29
    ## 10 AEA Papers and Proceedings 108, 636-51, 2018                           1
    ## # ... with 338 more rows
…
