…
# *What is the number of (unique) storms in each year?*

We are interested in how many unique storms in each year.We will look at
the overal data first and then find data for each year. So,we can have a
better understanding about the frequency of the storms.

    ## [1] 578

    ## [1] 512

    ## # A tibble: 549 x 3
    ##    `dat$season` `dat$name`     n
    ##           <int> <chr>      <int>
    ##  1         2010 AGATHA         9
    ##  2         2010 ALEX          32
    ##  3         2010 ANJA          28
    ##  4         2010 BANDU         41
    ##  5         2010 BLAS          32
    ##  6         2010 BONGANI       25
    ##  7         2010 BONNIE        18
    ##  8         2010 CELIA         50
    ##  9         2010 CHABA         59
    ## 10         2010 CHANTHU       27
    ## # ... with 539 more rows

    ## # A tibble: 578 x 3
    ##    `dat$season` `dat$serial_num`     n
    ##           <int> <chr>            <int>
    ##  1         2010 2009317S10073       28
    ##  2         2010 2009325S12066       25
    ##  3         2010 2009337S07096       58
    ##  4         2010 2009342S09140       66
    ##  5         2010 2009346S07086       78
    ##  6         2010 2009346S10172       20
    ##  7         2010 2010002S09096       55
    ##  8         2010 2010018N07113       10
    ##  9         2010 2010019S11123       28
    ## 10         2010 2010020S14147       10
    ## # ... with 568 more rows
…
    ## [1] 185

    ## [1] 3

    ## [1] 1017

    ## [1] 872

From the data above, we can know that the maximum wind speed is 185, and
minimum wind speed is 3. The max wind pressure is 1017 and minimum wind
pressure is 872.

# *Storms with speed more than 35 knots (tropical storms)*

    ## # A tibble: 10,490 x 12
    ##    serial_num season num   basin sub_basin name  iso_time nature latitude
    ##    <chr>       <int> <chr> <fct> <chr>     <chr> <chr>    <chr>     <dbl>
    ##  1 2009317S1~   2010 1     SI    MM        ANJA  11/14/2~ TS        -12.8
    ##  2 2009317S1~   2010 1     SI    MM        ANJA  11/14/2~ TS        -12.9
    ##  3 2009317S1~   2010 1     SI    MM        ANJA  11/15/2~ TS        -12.9
    ##  4 2009317S1~   2010 1     SI    MM        ANJA  11/15/2~ TS        -13  
    ##  5 2009317S1~   2010 1     SI    MM        ANJA  11/15/2~ TS        -13.1
    ##  6 2009317S1~   2010 1     SI    MM        ANJA  11/15/2~ TS        -13.2
    ##  7 2009317S1~   2010 1     SI    MM        ANJA  11/16/2~ TS        -13.5
    ##  8 2009317S1~   2010 1     SI    MM        ANJA  11/16/2~ TS        -14.1
    ##  9 2009317S1~   2010 1     SI    MM        ANJA  11/16/2~ TS        -14.8
    ## 10 2009317S1~   2010 1     SI    MM        ANJA  11/16/2~ TS        -15.6
    ## # ... with 10,480 more rows, and 3 more variables: longitude <dbl>,
    ## #   wind <dbl>, press <dbl>
…
