…
[3] "11/13/2009 18:00" "11/14/2009 0:00" 
[5] "11/14/2009 6:00"  "11/14/2009 12:00"
# A tibble: 6 x 12
  serial_num season num   basin `sub-basin` name 
  <chr>       <int> <chr> <fct> <chr>       <chr>
1 2009317S1~   2010 1     SI    MM          ANJA 
2 2009317S1~   2010 1     SI    MM          ANJA 
3 2009317S1~   2010 1     SI    MM          ANJA 
4 2009317S1~   2010 1     SI    MM          ANJA 
5 2009317S1~   2010 1     SI    MM          ANJA 
6 2009317S1~   2010 1     SI    MM          ANJA 
# ... with 6 more variables: `iso-time` <chr>,
#   nature <chr>, latitude <dbl>, longitude <dbl>,
#   wind <dbl>, press <dbl>
# A tibble: 19,995 x 12
   serial_num season num   basin `sub-basin` name 
   <chr>       <int> <chr> <fct> <chr>       <chr>
 1 2009317S1~   2010 1     SI    MM          ANJA 
 2 2009317S1~   2010 1     SI    MM          ANJA 
 3 2009317S1~   2010 1     SI    MM          ANJA 
 4 2009317S1~   2010 1     SI    MM          ANJA 
 5 2009317S1~   2010 1     SI    MM          ANJA 
 6 2009317S1~   2010 1     SI    MM          ANJA 
 7 2009317S1~   2010 1     SI    MM          ANJA 
 8 2009317S1~   2010 1     SI    MM          ANJA 
 9 2009317S1~   2010 1     SI    MM          ANJA 
10 2009317S1~   2010 1     SI    MM          ANJA 
# ... with 19,985 more rows, and 6 more variables:
#   `iso-time` <chr>, nature <chr>, latitude <dbl>,
#   longitude <dbl>, wind <dbl>, press <dbl>
# A tibble: 19,995 x 12
   serial_num season num   basin `sub-basin` name 
   <chr>       <int> <chr> <fct> <chr>       <chr>
 1 2009317S1~   2010 1     SI    MM          ANJA 
 2 2009317S1~   2010 1     SI    MM          ANJA 
 3 2009317S1~   2010 1     SI    MM          ANJA 
 4 2009317S1~   2010 1     SI    MM          ANJA 
 5 2009317S1~   2010 1     SI    MM          ANJA 
 6 2009317S1~   2010 1     SI    MM          ANJA 
 7 2009317S1~   2010 1     SI    MM          ANJA 
 8 2009317S1~   2010 1     SI    MM          ANJA 
 9 2009317S1~   2010 1     SI    MM          ANJA 
10 2009317S1~   2010 1     SI    MM          ANJA 
# ... with 19,985 more rows, and 6 more variables:
#   `iso-time` <chr>, nature <chr>, latitude <dbl>,
#   longitude <dbl>, wind <dbl>, press <dbl>
# A tibble: 19,995 x 12
   serial_num season num   basin `sub-basin` name 
   <chr>       <int> <chr> <fct> <chr>       <chr>
 1 2009317S1~   2010 1     SI    MM          ANJA 
 2 2009317S1~   2010 1     SI    MM          ANJA 
 3 2009317S1~   2010 1     SI    MM          ANJA 
 4 2009317S1~   2010 1     SI    MM          ANJA 
 5 2009317S1~   2010 1     SI    MM          ANJA 
 6 2009317S1~   2010 1     SI    MM          ANJA 
 7 2009317S1~   2010 1     SI    MM          ANJA 
 8 2009317S1~   2010 1     SI    MM          ANJA 
 9 2009317S1~   2010 1     SI    MM          ANJA 
10 2009317S1~   2010 1     SI    MM          ANJA 
# ... with 19,985 more rows, and 6 more variables:
#   iso_time <chr>, nature <chr>, latitude <dbl>,
#   longitude <dbl>, wind <dbl>, press <dbl>
 chr [1:19995] "11/13/2009 6:00" "11/13/2009 12:00" ...
 NULL
# A tibble: 19,995 x 12
   serial_num season num   basin `sub-basin` name 
   <chr>       <int> <chr> <fct> <chr>       <chr>
 1 2009317S1~   2010 1     SI    MM          ANJA 
 2 2009317S1~   2010 1     SI    MM          ANJA 
 3 2009317S1~   2010 1     SI    MM          ANJA 
 4 2009317S1~   2010 1     SI    MM          ANJA 
 5 2009317S1~   2010 1     SI    MM          ANJA 
 6 2009317S1~   2010 1     SI    MM          ANJA 
 7 2009317S1~   2010 1     SI    MM          ANJA 
 8 2009317S1~   2010 1     SI    MM          ANJA 
 9 2009317S1~   2010 1     SI    MM          ANJA 
10 2009317S1~   2010 1     SI    MM          ANJA 
# ... with 19,985 more rows, and 6 more variables:
#   iso_time <chr>, nature <chr>, latitude <dbl>,
#   longitude <dbl>, wind <dbl>, press <dbl>
…
# A tibble: 19,995 x 12
   serial_num season num   basin sub_basin name  iso_time
   <chr>       <int> <chr> <fct> <chr>     <chr> <chr>   
 1 2009317S1~   2010 1     SI    MM        ANJA  11/13/2~
 2 2009317S1~   2010 1     SI    MM        ANJA  11/13/2~
 3 2009317S1~   2010 1     SI    MM        ANJA  11/13/2~
 4 2009317S1~   2010 1     SI    MM        ANJA  11/14/2~
 5 2009317S1~   2010 1     SI    MM        ANJA  11/14/2~
 6 2009317S1~   2010 1     SI    MM        ANJA  11/14/2~
 7 2009317S1~   2010 1     SI    MM        ANJA  11/14/2~
 8 2009317S1~   2010 1     SI    MM        ANJA  11/15/2~
 9 2009317S1~   2010 1     SI    MM        ANJA  11/15/2~
10 2009317S1~   2010 1     SI    MM        ANJA  11/15/2~
# ... with 19,985 more rows, and 5 more variables:
#   nature <chr>, latitude <dbl>, longitude <dbl>,
#   wind <dbl>, press <dbl>
…
2 2009317S1~   2010 1     SI    MM        ANJA  11/13/2~
3 2009317S1~   2010 1     SI    MM        ANJA  11/13/2~
4 2009317S1~   2010 1     SI    MM        ANJA  11/14/2~
5 2009317S1~   2010 1     SI    MM        ANJA  11/14/2~
6 2009317S1~   2010 1     SI    MM        ANJA  11/14/2~
# ... with 5 more variables: nature <chr>,
#   latitude <dbl>, longitude <dbl>, wind <dbl>,
#   press <dbl>
[1] 578
[1] 512
[1] 185
[1] 3
[1] 1017
[1] 872
# A tibble: 19,995 x 12
   serial_num season num   basin sub_basin name  iso_time
   <chr>       <int> <chr> <fct> <chr>     <chr> <chr>   
 1 2009317S1~   2010 1     SI    MM        ANJA  11/13/2~
 2 2009317S1~   2010 1     SI    MM        ANJA  11/13/2~
 3 2009317S1~   2010 1     SI    MM        ANJA  11/13/2~
 4 2009317S1~   2010 1     SI    MM        ANJA  11/14/2~
 5 2009317S1~   2010 1     SI    MM        ANJA  11/14/2~
 6 2009317S1~   2010 1     SI    MM        ANJA  11/14/2~
 7 2009317S1~   2010 1     SI    MM        ANJA  11/14/2~
 8 2009317S1~   2010 1     SI    MM        ANJA  11/15/2~
 9 2009317S1~   2010 1     SI    MM        ANJA  11/15/2~
10 2009317S1~   2010 1     SI    MM        ANJA  11/15/2~
# ... with 19,985 more rows, and 5 more variables:
#   nature <chr>, latitude <dbl>, longitude <dbl>,
#   wind <dbl>, press <dbl>
# A tibble: 6,351 x 12
   serial_num season num   basin `sub-basin` name 
   <chr>       <int> <chr> <fct> <chr>       <chr>
 1 2010149N1~   2010 1     EP    MM          AGAT~
 2 2010149N1~   2010 1     EP    MM          AGAT~
 3 2010149N1~   2010 1     EP    MM          AGAT~
 4 2010149N1~   2010 1     EP    MM          AGAT~
 5 2010149N1~   2010 1     EP    MM          AGAT~
 6 2010149N1~   2010 1     EP    MM          AGAT~
 7 2010149N1~   2010 1     EP    MM          AGAT~
 8 2010149N1~   2010 1     EP    MM          AGAT~
 9 2010149N1~   2010 1     EP    MM          AGAT~
10 2010166N1~   2010 2     EP    MM          BLAS 
# ... with 6,341 more rows, and 6 more variables:
#   `iso-time` <chr>, nature <chr>, latitude <dbl>,
#   longitude <dbl>, wind <dbl>, press <dbl>
[1] 578
[1] 512
# A tibble: 6 x 12
  serial_num season num   basin sub_basin name  iso_time
  <chr>       <int> <chr> <fct> <chr>     <chr> <chr>   
1 2009317S1~   2010 1     SI    MM        ANJA  11/13/2~
2 2009317S1~   2010 1     SI    MM        ANJA  11/13/2~
3 2009317S1~   2010 1     SI    MM        ANJA  11/13/2~
4 2009317S1~   2010 1     SI    MM        ANJA  11/14/2~
5 2009317S1~   2010 1     SI    MM        ANJA  11/14/2~
6 2009317S1~   2010 1     SI    MM        ANJA  11/14/2~
# ... with 5 more variables: nature <chr>,
#   latitude <dbl>, longitude <dbl>, wind <dbl>,
#   press <dbl>
# A tibble: 19,995 x 12
   serial_num season num   basin sub_basin name  iso_time
   <chr>       <int> <chr> <fct> <chr>     <chr> <chr>   
 1 2009317S1~   2010 1     SI    MM        ANJA  11/13/2~
 2 2009317S1~   2010 1     SI    MM        ANJA  11/13/2~
 3 2009317S1~   2010 1     SI    MM        ANJA  11/13/2~
 4 2009317S1~   2010 1     SI    MM        ANJA  11/14/2~
 5 2009317S1~   2010 1     SI    MM        ANJA  11/14/2~
 6 2009317S1~   2010 1     SI    MM        ANJA  11/14/2~
 7 2009317S1~   2010 1     SI    MM        ANJA  11/14/2~
 8 2009317S1~   2010 1     SI    MM        ANJA  11/15/2~
 9 2009317S1~   2010 1     SI    MM        ANJA  11/15/2~
10 2009317S1~   2010 1     SI    MM        ANJA  11/15/2~
# ... with 19,985 more rows, and 5 more variables:
#   nature <chr>, latitude <dbl>, longitude <dbl>,
#   wind <dbl>, press <dbl>
…
